%YAML 1.1
%TAG !u! tag:unity3d.com,2011:
--- !u!114 &11400000
MonoBehaviour:
  m_ObjectHideFlags: 0
  m_CorrespondingSourceObject: {fileID: 0}
  m_PrefabInstance: {fileID: 0}
  m_PrefabAsset: {fileID: 0}
  m_GameObject: {fileID: 0}
  m_Enabled: 1
  m_EditorHideFlags: 0
  m_Script: {fileID: 11500000, guid: 2c8fd6e7487bae740b02853ed3a6d12f, type: 3}
  m_Name: Spider
  m_EditorClassIdentifier: 
  Legs:
  - {fileID: 100000, guid: 085eed3ac8b794a44ae39e24812996bf, type: 3}
  - {fileID: 100000, guid: 3d11055089ca99b4bacf16abadf48691, type: 3}
  - {fileID: 100000, guid: 18981a06fb298f345ab489e86c560f5c, type: 3}
  - {fileID: 100022, guid: 964935ea286c84441800a942daa8536a, type: 3}
  - {fileID: 100022, guid: ab2035ebbc42a2b4a9bbe2864fa37c93, type: 3}
  - {fileID: 100022, guid: 8ee4ffb23973c0144b35a4f4fe154cfb, type: 3}
  - {fileID: 100022, guid: c17cc76de4712d84ebed7e3ea87e59fb, type: 3}
  - {fileID: 100000, guid: 1415d054a13a4024094d93ddc523f58c, type: 3}
  - {fileID: 100000, guid: 152f7ab4611632a428a335a7961c39ce, type: 3}
  - {fileID: 100000, guid: a7ec5f6f20c22d748acfb4c39c87d5cf, type: 3}
  Cockpits:
  - {fileID: 100000, guid: 682f3e333d09edd42b2a7c70ddca26c5, type: 3}
  - {fileID: 100000, guid: 576e2d7e698d71643ab7e183977fbf0e, type: 3}
  - {fileID: 100000, guid: 6ffe8042a6a59a2479211d3c725fc7c8, type: 3}
  - {fileID: 100000, guid: c247f4754f5b779409e3dc67bf84273e, type: 3}
  - {fileID: 100010, guid: 5aabc52ffbf6c4a49a700de8d3870422, type: 3}
  - {fileID: 100010, guid: cd9bf7da531aed44a83f950e0a40cee4, type: 3}
  - {fileID: 100000, guid: d7603ed7b7eadcc4caf5d57a723adfbc, type: 3}
  - {fileID: 100000, guid: 87b9d76b1dda9b74181b970db3a2f70a, type: 3}
  - {fileID: 100010, guid: 173170aa746f23946971a99df59501a6, type: 3}
  - {fileID: 100000, guid: 5a271c871c44a314f8dc597a42f63cdb, type: 3}
  Backpacks:
  - {fileID: 100000, guid: bdacc693c53b8e949ac19446da459c12, type: 3}
  - {fileID: 100000, guid: 903da6748eb3f5e4ea5daeefe7269c09, type: 3}
  - {fileID: 100000, guid: fdceac9fa835aff4c923747873bb73d9, type: 3}
  - {fileID: 100002, guid: f1c79d94a18de1e4c829a4029812ddc0, type: 3}
  - {fileID: 100004, guid: 1ec519cb2aa190a4cb0c3ecaf671116f, type: 3}
  - {fileID: 100006, guid: 1333f36a066efe147a06360e1c2e498c, type: 3}
  - {fileID: 100006, guid: 757f7f9581a81554abedbdfdf9f4328f, type: 3}
  - {fileID: 100000, guid: daed37b91e53cf34fb6c0c95d729a595, type: 3}
  - {fileID: 100000, guid: 852c536d92bbcbf4caf2b5211997e531, type: 3}
  - {fileID: 100000, guid: a541cdabba0425641a58c1bd462463af, type: 3}
