%YAML 1.1
%TAG !u! tag:unity3d.com,2011:
--- !u!114 &11400000
MonoBehaviour:
  m_ObjectHideFlags: 0
  m_CorrespondingSourceObject: {fileID: 0}
  m_PrefabInstance: {fileID: 0}
  m_PrefabAsset: {fileID: 0}
  m_GameObject: {fileID: 0}
  m_Enabled: 1
  m_EditorHideFlags: 0
  m_Script: {fileID: 11500000, guid: a2d570c446364ec3b584b76de2f1a47d, type: 3}
  m_Name: Legs_Tracks_Lvl0
  m_EditorClassIdentifier: 
  Name: Tracks Lvl0
  PrefabRef: {fileID: 100022, guid: 964935ea286c84441800a942daa8536a, type: 3}
  MountPoints:
  - Name: Cockpit
    HierarchyPath: ROOT/Pelvis/Top/Mount_Top
    Type: 2
    VariantsRef: {fileID: 11400000, guid: cdfccecd1e2a8e341baeb712e8d8b5e7, type: 2}
    IsRequired: 1
  Descriptor:
    Feature: Flat floor speed boost
    Firepower: 0
    Defense: 0
  PartMatcher: {fileID: 11400000, guid: beb893c23642444419232792090e82e2, type: 2}
