%YAML 1.1
%TAG !u! tag:unity3d.com,2011:
--- !u!114 &11400000
MonoBehaviour:
  m_ObjectHideFlags: 0
  m_CorrespondingSourceObject: {fileID: 0}
  m_PrefabInstance: {fileID: 0}
  m_PrefabAsset: {fileID: 0}
  m_GameObject: {fileID: 0}
  m_Enabled: 1
  m_EditorHideFlags: 0
  m_Script: {fileID: 11500000, guid: 7ee5331b3ff347c0bb4827101fefec42, type: 3}
  m_Name: MechSpiderBackpacks
  m_EditorClassIdentifier: 
  VariantsRefs:
  - {fileID: 11400000, guid: 1b5153bf56d1ec145a9097bb26fdc1b6, type: 2}
  - {fileID: 11400000, guid: fe71ea71d9401314ca16041ffdf4feb0, type: 2}
