%YAML 1.1
%TAG !u! tag:unity3d.com,2011:
--- !u!114 &11400000
MonoBehaviour:
  m_ObjectHideFlags: 0
  m_CorrespondingSourceObject: {fileID: 0}
  m_PrefabInstance: {fileID: 0}
  m_PrefabAsset: {fileID: 0}
  m_GameObject: {fileID: 0}
  m_Enabled: 1
  m_EditorHideFlags: 0
  m_Script: {fileID: 11500000, guid: a2d570c446364ec3b584b76de2f1a47d, type: 3}
  m_Name: Cockpit_Gun_Flat_Part
  m_EditorClassIdentifier: 
  Name: Cockpit_Gun_Flat_Part
  PrefabRef: {fileID: 100010, guid: cd9bf7da531aed44a83f950e0a40cee4, type: 3}
  MountPoints:
  - Name: Backpack
    HierarchyPath: Mount_Backpack
    Type: 6
    VariantsRef: {fileID: 11400000, guid: 9e78bb3bda5da004b97b5eb18675093f, type: 2}
    IsRequired: 1
  - Name: Shoulder (L)
    HierarchyPath: Mount_HalfShoulder_L
    Type: 5
    VariantsRef: {fileID: 11400000, guid: 65a80190ef7d6fe4f8bef0337acbcd7a, type: 2}
    IsRequired: 0
  - Name: Shoulder (R)
    HierarchyPath: Mount_HalfShoulder_R
    Type: 5
    VariantsRef: {fileID: 11400000, guid: 65a80190ef7d6fe4f8bef0337acbcd7a, type: 2}
    IsRequired: 0
  - Name: Weapon (Main)
    HierarchyPath: Mount_Weapon_Main
    Type: 1
    VariantsRef: {fileID: 11400000, guid: 08bfb09d05943e84eab704fd29f00e69, type: 2}
    IsRequired: 1
  Descriptor:
    Feature: 
    Firepower: 0
    Defense: 0
  PartMatcher: {fileID: 11400000, guid: beb893c23642444419232792090e82e2, type: 2}
