%YAML 1.1
%TAG !u! tag:unity3d.com,2011:
--- !u!114 &11400000
MonoBehaviour:
  m_ObjectHideFlags: 0
  m_CorrespondingSourceObject: {fileID: 0}
  m_PrefabInstance: {fileID: 0}
  m_PrefabAsset: {fileID: 0}
  m_GameObject: {fileID: 0}
  m_Enabled: 1
  m_EditorHideFlags: 0
  m_Script: {fileID: 11500000, guid: a2d570c446364ec3b584b76de2f1a47d, type: 3}
  m_Name: Cockpit_Gunner
  m_EditorClassIdentifier: 
  Name: Gunner
  PrefabRef: {fileID: 100000, guid: 87b9d76b1dda9b74181b970db3a2f70a, type: 3}
  MountPoints:
  - Name: Backpack
    HierarchyPath: Mount_backpack
    Type: 6
    VariantsRef: {fileID: 11400000, guid: 9e78bb3bda5da004b97b5eb18675093f, type: 2}
    IsRequired: 1
  - Name: Weapon (L)
    HierarchyPath: Mount_Weapon_L
    Type: 1
    VariantsRef: {fileID: 11400000, guid: 08bfb09d05943e84eab704fd29f00e69, type: 2}
    IsRequired: 0
  - Name: Weapon (R)
    HierarchyPath: Mount_Weapon_R
    Type: 1
    VariantsRef: {fileID: 11400000, guid: 08bfb09d05943e84eab704fd29f00e69, type: 2}
    IsRequired: 0
  - Name: Weapon (Top)
    HierarchyPath: Mount_Weapon_top
    Type: 1
    VariantsRef: {fileID: 11400000, guid: 08bfb09d05943e84eab704fd29f00e69, type: 2}
    IsRequired: 0
  Descriptor:
    Feature: 
    Firepower: 0
    Defense: 5
  PartMatcher: {fileID: 11400000, guid: beb893c23642444419232792090e82e2, type: 2}
