# MagicaVoxel @ Ephtracy

# group
o 

# material
mtllib flag.mtl
usemtl palette

# normals
vn -1 0 0
vn 1 0 0
vn 0 0 1
vn 0 0 -1
vn 0 -1 0
vn 0 1 0

# texcoords
vt 0.986328 0.5
vt 0.990234 0.5
vt 0.994141 0.5

# verts
v -0.3 0 0.3
v -0.3 0 -0.3
v -0.3 0.1 0.3
v -0.3 0.1 -0.3
v -0.2 1.8 0.1
v -0.2 1.8 -0.1
v -0.2 2 0.1
v -0.2 2 -0.1
v -0.1 0.1 0.1
v -0.1 0.1 -0.1
v -0.1 1.8 0.2
v -0.1 1.8 0.1
v -0.1 1.8 -0.1
v -0.1 1.8 -0.2
v -0.1 2 0.2
v -0.1 2 0.1
v -0.1 2 -0.1
v -0.1 2 -0.2
v 0.1 0.1 0.1
v 0.1 0.1 -0.1
v 0.1 1.1 0.1
v 0.1 1.1 -0.1
v 0.1 1.7 0.1
v 0.1 1.7 -0.1
v 0.1 1.8 0.2
v 0.1 1.8 0.1
v 0.1 1.8 -0.1
v 0.1 1.8 -0.2
v 0.1 2 0.2
v 0.1 2 0.1
v 0.1 2 -0.1
v 0.1 2 -0.2
v 0.2 1.8 0.1
v 0.2 1.8 -0.1
v 0.2 2 0.1
v 0.2 2 -0.1
v 0.3 0 0.3
v 0.3 0 -0.3
v 0.3 0.1 0.3
v 0.3 0.1 -0.3
v 0.8 1.1 0.1
v 0.8 1.1 -0.1
v 0.8 1.7 0.1
v 0.8 1.7 -0.1
v -0.3 0 0.3
v -0.3 0.1 0.3
v 0.3 0 0.3
v 0.3 0.1 0.3
v -0.1 1.8 0.2
v -0.1 2 0.2
v 0.1 1.8 0.2
v 0.1 2 0.2
v -0.2 1.8 0.1
v -0.2 2 0.1
v -0.1 0.1 0.1
v -0.1 1.8 0.1
v -0.1 2 0.1
v 0.1 0.1 0.1
v 0.1 1.1 0.1
v 0.1 1.7 0.1
v 0.1 1.8 0.1
v 0.1 2 0.1
v 0.2 1.8 0.1
v 0.2 2 0.1
v 0.8 1.1 0.1
v 0.8 1.7 0.1
v -0.2 1.8 -0.1
v -0.2 2 -0.1
v -0.1 0.1 -0.1
v -0.1 1.8 -0.1
v -0.1 2 -0.1
v 0.1 0.1 -0.1
v 0.1 1.1 -0.1
v 0.1 1.7 -0.1
v 0.1 1.8 -0.1
v 0.1 2 -0.1
v 0.2 1.8 -0.1
v 0.2 2 -0.1
v 0.8 1.1 -0.1
v 0.8 1.7 -0.1
v -0.1 1.8 -0.2
v -0.1 2 -0.2
v 0.1 1.8 -0.2
v 0.1 2 -0.2
v -0.3 0 -0.3
v -0.3 0.1 -0.3
v 0.3 0 -0.3
v 0.3 0.1 -0.3
v -0.3 0 0.3
v 0.3 0 0.3
v -0.3 0 -0.3
v 0.3 0 -0.3
v 0.1 1.1 0.1
v 0.8 1.1 0.1
v 0.1 1.1 -0.1
v 0.8 1.1 -0.1
v -0.1 1.8 0.2
v 0.1 1.8 0.2
v -0.2 1.8 0.1
v -0.1 1.8 0.1
v 0.1 1.8 0.1
v 0.2 1.8 0.1
v -0.2 1.8 -0.1
v -0.1 1.8 -0.1
v 0.1 1.8 -0.1
v 0.2 1.8 -0.1
v -0.1 1.8 -0.2
v 0.1 1.8 -0.2
v -0.3 0.1 0.3
v 0.3 0.1 0.3
v -0.1 0.1 0.1
v 0.1 0.1 0.1
v -0.1 0.1 -0.1
v 0.1 0.1 -0.1
v -0.3 0.1 -0.3
v 0.3 0.1 -0.3
v 0.1 1.7 0.1
v 0.8 1.7 0.1
v 0.1 1.7 -0.1
v 0.8 1.7 -0.1
v -0.1 2 0.2
v 0.1 2 0.2
v -0.2 2 0.1
v -0.1 2 0.1
v 0.1 2 0.1
v 0.2 2 0.1
v -0.2 2 -0.1
v -0.1 2 -0.1
v 0.1 2 -0.1
v 0.2 2 -0.1
v -0.1 2 -0.2
v 0.1 2 -0.2

# faces
f 3/3/1 2/3/1 1/3/1
f 4/3/1 2/3/1 3/3/1
f 7/3/1 6/3/1 5/3/1
f 8/3/1 6/3/1 7/3/1
f 12/1/1 10/1/1 9/1/1
f 13/1/1 10/1/1 12/1/1
f 15/3/1 12/3/1 11/3/1
f 16/3/1 12/3/1 15/3/1
f 17/3/1 14/3/1 13/3/1
f 18/3/1 14/3/1 17/3/1
f 19/1/2 20/1/2 21/1/2
f 21/1/2 20/1/2 22/1/2
f 23/1/2 24/1/2 26/1/2
f 26/1/2 24/1/2 27/1/2
f 25/3/2 26/3/2 29/3/2
f 29/3/2 26/3/2 30/3/2
f 27/3/2 28/3/2 31/3/2
f 31/3/2 28/3/2 32/3/2
f 33/3/2 34/3/2 35/3/2
f 35/3/2 34/3/2 36/3/2
f 37/3/2 38/3/2 39/3/2
f 39/3/2 38/3/2 40/3/2
f 41/2/2 42/2/2 43/2/2
f 43/2/2 42/2/2 44/2/2
f 47/3/3 46/3/3 45/3/3
f 48/3/3 46/3/3 47/3/3
f 51/3/3 50/3/3 49/3/3
f 52/3/3 50/3/3 51/3/3
f 56/3/3 54/3/3 53/3/3
f 57/3/3 54/3/3 56/3/3
f 58/1/3 56/1/3 55/1/3
f 59/1/3 56/1/3 58/1/3
f 60/1/3 56/1/3 59/1/3
f 61/1/3 56/1/3 60/1/3
f 63/3/3 62/3/3 61/3/3
f 64/3/3 62/3/3 63/3/3
f 65/2/3 60/2/3 59/2/3
f 66/2/3 60/2/3 65/2/3
f 67/3/4 68/3/4 70/3/4
f 70/3/4 68/3/4 71/3/4
f 69/1/4 70/1/4 72/1/4
f 72/1/4 70/1/4 73/1/4
f 73/1/4 70/1/4 74/1/4
f 74/1/4 70/1/4 75/1/4
f 75/3/4 76/3/4 77/3/4
f 77/3/4 76/3/4 78/3/4
f 73/2/4 74/2/4 79/2/4
f 79/2/4 74/2/4 80/2/4
f 81/3/4 82/3/4 83/3/4
f 83/3/4 82/3/4 84/3/4
f 85/3/4 86/3/4 87/3/4
f 87/3/4 86/3/4 88/3/4
f 91/3/5 90/3/5 89/3/5
f 92/3/5 90/3/5 91/3/5
f 95/2/5 94/2/5 93/2/5
f 96/2/5 94/2/5 95/2/5
f 100/3/5 98/3/5 97/3/5
f 101/3/5 98/3/5 100/3/5
f 103/3/5 100/3/5 99/3/5
f 104/3/5 100/3/5 103/3/5
f 105/3/5 102/3/5 101/3/5
f 106/3/5 102/3/5 105/3/5
f 107/3/5 105/3/5 104/3/5
f 108/3/5 105/3/5 107/3/5
f 109/3/6 110/3/6 111/3/6
f 111/3/6 110/3/6 112/3/6
f 109/3/6 111/3/6 113/3/6
f 112/3/6 110/3/6 114/3/6
f 109/3/6 113/3/6 115/3/6
f 113/3/6 114/3/6 115/3/6
f 114/3/6 110/3/6 116/3/6
f 115/3/6 114/3/6 116/3/6
f 117/2/6 118/2/6 119/2/6
f 119/2/6 118/2/6 120/2/6
f 121/3/6 122/3/6 124/3/6
f 124/3/6 122/3/6 125/3/6
f 123/3/6 124/3/6 127/3/6
f 125/3/6 126/3/6 127/3/6
f 124/3/6 125/3/6 127/3/6
f 127/3/6 126/3/6 128/3/6
f 128/3/6 126/3/6 129/3/6
f 129/3/6 126/3/6 130/3/6
f 128/3/6 129/3/6 131/3/6
f 131/3/6 129/3/6 132/3/6
